[{"page":1,"pages":3,"per_page":"100","total":248},[{"indicator":{"id":"SP.POP.TOTL","value":"Population, total"},"country":{"id":"1A","value":"Arab World"},"value":"347737036","decimal":"1","date":"2010"},{"indicator":{"id":"SP.POP.TOTL","value":"Population, total"},"country":{"id":"S3","value":"Caribbean small states"},"value":"6881636","decimal":"1","date":"2010"},{"indicator":{"id":"SP.POP.TOTL","value":"Population, total"},"country":{"id":"B8","value":"Central Europe and the Baltics"},"value":"104684690","decimal":"1","date":"2010"},{"indicator":{"id":"SP.POP.TOTL","value":"Population, total"},"country":{"id":"Z4","value":"East Asia & Pacific (all income levels)"},"value":"2203685985","decimal":"1","date":"2010"},{"indicator":{"id":"SP.POP.TOTL","value":"Population, total"},"country":{"id":"4E","value":"East Asia & Pacific (developing only)"},"value":"1963520100","decimal":"1","date":"2010"},{"indicator":{"id":"SP.POP.TOTL","value":"Population, total"},"country":{"id":"XC","value":"Euro area"},"value":"333124071","decimal":"1","date":"2010"},{"indicator":{"id":"SP.POP.TOTL","value":"Population, total"},"country":{"id":"Z7","value":"Europe & Central Asia (all income levels)"},"value":"889190973","decimal":"1","date":"2010"},{"indicator":{"id":"SP.POP.TOTL","value":"Population, total"},"country":{"id":"7E","value":"Europe & Central Asia (developing only)"},"value":"266666626","decimal":"1","date":"2010"},{"indicator":{"id":"SP.POP.TOTL","value":"Population, total"},"country":{"id":"EU","value":"European Union"},"value":"504631894","decimal":"1","date":"2010"},{"indicator":{"id":"SP.POP.TOTL","value":"Population, total"},"country":{"id":"F1","value":"Fragile and conflict affected situations"},"value":"416682897","decimal":"1","date":"2010"},{"indicator":{"id":"SP.POP.TOTL","value":"Population, total"},"country":{"id":"XE","value":"Heavily indebted poor countries (HIPC)"},"value":"621860240","decimal":"1","date":"2010"},{"indicator":{"id":"SP.POP.TOTL","value":"Population, total"},"country":{"id":"XD","value":"High income"},"value":"1286180984","decimal":"1","date":"2010"},{"indicator":{"id":"SP.POP.TOTL","value":"Population, total"},"country":{"id":"XR","value":"High income: nonOECD"},"value":"245923838","decimal":"1","date":"2010"},{"indicator":{"id":"SP.POP.TOTL","value":"Population, total"},"country":{"id":"XS","value":"High income: OECD"},"value":"1040257146","decimal":"1","date":"2010"},{"indicator":{"id":"SP.POP.TOTL","value":"Population, total"},"country":{"id":"ZJ","value":"Latin America & Caribbean (all income levels)"},"value":"595022397","decimal":"1","date":"2010"},{"indicator":{"id":"SP.POP.TOTL","value":"Population, total"},"country":{"id":"XJ","value":"Latin America & Caribbean (developing only)"},"value":"568158111","decimal":"1","date":"2010"},{"indicator":{"id":"SP.POP.TOTL","value":"Population, total"},"country":{"id":"XL","value":"Least developed countries: UN classification"},"value":"838607768","decimal":"1","date":"2010"},{"indicator":{"id":"SP.POP.TOTL","value":"Population, total"},"country":{"id":"XO","value":"Low & middle income"},"value":"5597331388","decimal":"1","date":"2010"},{"indicator":{"id":"SP.POP.TOTL","value":"Population, total"},"country":{"id":"XM","value":"Low income"},"value":"794273025","decimal":"1","date":"2010"},{"indicator":{"id":"SP.POP.TOTL","value":"Population, total"},"country":{"id":"XN","value":"Lower middle income"},"value":"2449001778","decimal":"1","date":"2010"},{"indicator":{"id":"SP.POP.TOTL","value":"Population, total"},"country":{"id":"ZQ","value":"Middle East & North Africa (all income levels)"},"value":"380656782","decimal":"1","date":"2010"},{"indicator":{"id":"SP.POP.TOTL","value":"Population, total"},"country":{"id":"XQ","value":"Middle East & North Africa (developing only)"},"value":"328123176","decimal":"1","date":"2010"},{"indicator":{"id":"SP.POP.TOTL","value":"Population, total"},"country":{"id":"XP","value":"Middle income"},"value":"4803058363","decimal":"1","date":"2010"},{"indicator":{"id":"SP.POP.TOTL","value":"Population, total"},"country":{"id":"XU","value":"North America"},"value":"343396693","decimal":"1","date":"2010"},{"indicator":{"id":"SP.POP.TOTL","value":"Population, total"},"country":{"id":"XY","value":"Not classified"},"value":null,"decimal":"1","date":"2010"},{"indicator":{"id":"SP.POP.TOTL","value":"Population, total"},"country":{"id":"OE","value":"OECD members"},"value":"1240281119","decimal":"1","date":"2010"},{"indicator":{"id":"SP.POP.TOTL","value":"Population, total"},"country":{"id":"S4","value":"Other small states"},"value":"19152790","decimal":"1","date":"2010"},{"indicator":{"id":"SP.POP.TOTL","value":"Population, total"},"country":{"id":"S2","value":"Pacific island small states"},"value":"2197519","decimal":"1","date":"2010"},{"indicator":{"id":"SP.POP.TOTL","value":"Population, total"},"country":{"id":"S1","value":"Small states"},"value":"28231945","decimal":"1","date":"2010"},{"indicator":{"id":"SP.POP.TOTL","value":"Population, total"},"country":{"id":"8S","value":"South Asia"},"value":"1606838890","decimal":"1","date":"2010"},{"indicator":{"id":"SP.POP.TOTL","value":"Population, total"},"country":{"id":"ZG","value":"Sub-Saharan Africa (all income levels)"},"value":"864720652","decimal":"1","date":"2010"},{"indicator":{"id":"SP.POP.TOTL","value":"Population, total"},"country":{"id":"ZF","value":"Sub-Saharan Africa (developing only)"},"value":"864024485","decimal":"1","date":"2010"},{"indicator":{"id":"SP.POP.TOTL","value":"Population, total"},"country":{"id":"XT","value":"Upper middle income"},"value":"2354056585","decimal":"1","date":"2010"},{"indicator":{"id":"SP.POP.TOTL","value":"Population, total"},"country":{"id":"1W","value":"World"},"value":"6883512372","decimal":"1","date":"2010"},{"indicator":{"id":"SP.POP.TOTL","value":"Population, total"},"country":{"id":"AF","value":"Afghanistan"},"value":"28397812","decimal":"1","date":"2010"},{"indicator":{"id":"SP.POP.TOTL","value":"Population, total"},"country":{"id":"AL","value":"Albania"},"value":"2856673","decimal":"1","date":"2010"},{"indicator":{"id":"SP.POP.TOTL","value":"Population, total"},"country":{"id":"DZ","value":"Algeria"},"value":"37062820","decimal":"1","date":"2010"},{"indicator":{"id":"SP.POP.TOTL","value":"Population, total"},"country":{"id":"AS","value":"American Samoa"},"value":"55636","decimal":"1","date":"2010"},{"indicator":{"id":"SP.POP.TOTL","value":"Population, total"},"country":{"id":"AD","value":"Andorra"},"value":"77907","decimal":"1","date":"2010"},{"indicator":{"id":"SP.POP.TOTL","value":"Population, total"},"country":{"id":"AO","value":"Angola"},"value":"19549124","decimal":"1","date":"2010"},{"indicator":{"id":"SP.POP.TOTL","value":"Population, total"},"country":{"id":"AG","value":"Antigua and Barbuda"},"value":"87233","decimal":"1","date":"2010"},{"indicator":{"id":"SP.POP.TOTL","value":"Population, total"},"country":{"id":"AR","value":"Argentina"},"value":"40374224","decimal":"1","date":"2010"},{"indicator":{"id":"SP.POP.TOTL","value":"Population, total"},"country":{"id":"AM","value":"Armenia"},"value":"2963496","decimal":"1","date":"2010"},{"indicator":{"id":"SP.POP.TOTL","value":"Population, total"},"country":{"id":"AW","value":"Aruba"},"value":"101597","decimal":"1","date":"2010"},{"indicator":{"id":"SP.POP.TOTL","value":"Population, total"},"country":{"id":"AU","value":"Australia"},"value":"22031800","decimal":"1","date":"2010"},{"indicator":{"id":"SP.POP.TOTL","value":"Population, total"},"country":{"id":"AT","value":"Austria"},"value":"8389771","decimal":"1","date":"2010"},{"indicator":{"id":"SP.POP.TOTL","value":"Population, total"},"country":{"id":"AZ","value":"Azerbaijan"},"value":"9054332","decimal":"1","date":"2010"},{"indicator":{"id":"SP.POP.TOTL","value":"Population, total"},"country":{"id":"BS","value":"Bahamas, The"},"value":"360498","decimal":"1","date":"2010"},{"indicator":{"id":"SP.POP.TOTL","value":"Population, total"},"country":{"id":"BH","value":"Bahrain"},"value":"1251513","decimal":"1","date":"2010"},{"indicator":{"id":"SP.POP.TOTL","value":"Population, total"},"country":{"id":"BD","value":"Bangladesh"},"value":"151125475","decimal":"1","date":"2010"},{"indicator":{"id":"SP.POP.TOTL","value":"Population, total"},"country":{"id":"BB","value":"Barbados"},"value":"280396","decimal":"1","date":"2010"},{"indicator":{"id":"SP.POP.TOTL","value":"Population, total"},"country":{"id":"BY","value":"Belarus"},"value":"9490000","decimal":"1","date":"2010"},{"indicator":{"id":"SP.POP.TOTL","value":"Population, total"},"country":{"id":"BE","value":"Belgium"},"value":"10920272","decimal":"1","date":"2010"},{"indicator":{"id":"SP.POP.TOTL","value":"Population, total"},"country":{"id":"BZ","value":"Belize"},"value":"308595","decimal":"1","date":"2010"},{"indicator":{"id":"SP.POP.TOTL","value":"Population, total"},"country":{"id":"BJ","value":"Benin"},"value":"9509798","decimal":"1","date":"2010"},{"indicator":{"id":"SP.POP.TOTL","value":"Population, total"},"country":{"id":"BM","value":"Bermuda"},"value":"65124","decimal":"1","date":"2010"},{"indicator":{"id":"SP.POP.TOTL","value":"Population, total"},"country":{"id":"BT","value":"Bhutan"},"value":"716939","decimal":"1","date":"2010"},{"indicator":{"id":"SP.POP.TOTL","value":"Population, total"},"country":{"id":"BO","value":"Bolivia"},"value":"10156601","decimal":"1","date":"2010"},{"indicator":{"id":"SP.POP.TOTL","value":"Population, total"},"country":{"id":"BA","value":"Bosnia and Herzegovina"},"value":"3845929","decimal":"1","date":"2010"},{"indicator":{"id":"SP.POP.TOTL","value":"Population, total"},"country":{"id":"BW","value":"Botswana"},"value":"1969341","decimal":"1","date":"2010"},{"indicator":{"id":"SP.POP.TOTL","value":"Population, total"},"country":{"id":"BR","value":"Brazil"},"value":"195210154","decimal":"1","date":"2010"},{"indicator":{"id":"SP.POP.TOTL","value":"Population, total"},"country":{"id":"BN","value":"Brunei Darussalam"},"value":"400569","decimal":"1","date":"2010"},{"indicator":{"id":"SP.POP.TOTL","value":"Population, total"},"country":{"id":"BG","value":"Bulgaria"},"value":"7395599","decimal":"1","date":"2010"},{"indicator":{"id":"SP.POP.TOTL","value":"Population, total"},"country":{"id":"BF","value":"Burkina Faso"},"value":"15540284","decimal":"1","date":"2010"},{"indicator":{"id":"SP.POP.TOTL","value":"Population, total"},"country":{"id":"BI","value":"Burundi"},"value":"9232753","decimal":"1","date":"2010"},{"indicator":{"id":"SP.POP.TOTL","value":"Population, total"},"country":{"id":"CV","value":"Cabo Verde"},"value":"487601","decimal":"1","date":"2010"},{"indicator":{"id":"SP.POP.TOTL","value":"Population, total"},"country":{"id":"KH","value":"Cambodia"},"value":"14364931","decimal":"1","date":"2010"},{"indicator":{"id":"SP.POP.TOTL","value":"Population, total"},"country":{"id":"CM","value":"Cameroon"},"value":"20624343","decimal":"1","date":"2010"},{"indicator":{"id":"SP.POP.TOTL","value":"Population, total"},"country":{"id":"CA","value":"Canada"},"value":"34005274","decimal":"1","date":"2010"},{"indicator":{"id":"SP.POP.TOTL","value":"Population, total"},"country":{"id":"KY","value":"Cayman Islands"},"value":"55509","decimal":"1","date":"2010"},{"indicator":{"id":"SP.POP.TOTL","value":"Population, total"},"country":{"id":"CF","value":"Central African Republic"},"value":"4349921","decimal":"1","date":"2010"},{"indicator":{"id":"SP.POP.TOTL","value":"Population, total"},"country":{"id":"TD","value":"Chad"},"value":"11720781","decimal":"1","date":"2010"},{"indicator":{"id":"SP.POP.TOTL","value":"Population, total"},"country":{"id":"JG","value":"Channel Islands"},"value":"159518","decimal":"1","date":"2010"},{"indicator":{"id":"SP.POP.TOTL","value":"Population, total"},"country":{"id":"CL","value":"Chile"},"value":"17150760","decimal":"1","date":"2010"},{"indicator":{"id":"SP.POP.TOTL","value":"Population, total"},"country":{"id":"CN","value":"China"},"value":"1337705000","decimal":"1","date":"2010"},{"indicator":{"id":"SP.POP.TOTL","value":"Population, total"},"country":{"id":"CO","value":"Colombia"},"value":"46444798","decimal":"1","date":"2010"},{"indicator":{"id":"SP.POP.TOTL","value":"Population, total"},"country":{"id":"KM","value":"Comoros"},"value":"683081","decimal":"1","date":"2010"},{"indicator":{"id":"SP.POP.TOTL","value":"Population, total"},"country":{"id":"CD","value":"Congo, Dem. Rep."},"value":"62191161","decimal":"1","date":"2010"},{"indicator":{"id":"SP.POP.TOTL","value":"Population, total"},"country":{"id":"CG","value":"Congo, Rep."},"value":"4111715","decimal":"1","date":"2010"},{"indicator":{"id":"SP.POP.TOTL","value":"Population, total"},"country":{"id":"CR","value":"Costa Rica"},"value":"4669685","decimal":"1","date":"2010"},{"indicator":{"id":"SP.POP.TOTL","value":"Population, total"},"country":{"id":"CI","value":"Cote d'Ivoire"},"value":"18976588","decimal":"1","date":"2010"},{"indicator":{"id":"SP.POP.TOTL","value":"Population, total"},"country":{"id":"HR","value":"Croatia"},"value":"4417781","decimal":"1","date":"2010"},{"indicator":{"id":"SP.POP.TOTL","value":"Population, total"},"country":{"id":"CU","value":"Cuba"},"value":"11281768","decimal":"1","date":"2010"},{"indicator":{"id":"SP.POP.TOTL","value":"Population, total"},"country":{"id":"CW","value":"Curacao"},"value":"149311","decimal":"1","date":"2010"},{"indicator":{"id":"SP.POP.TOTL","value":"Population, total"},"country":{"id":"CY","value":"Cyprus"},"value":"1103685","decimal":"1","date":"2010"},{"indicator":{"id":"SP.POP.TOTL","value":"Population, total"},"country":{"id":"CZ","value":"Czech Republic"},"value":"10474410","decimal":"1","date":"2010"},{"indicator":{"id":"SP.POP.TOTL","value":"Population, total"},"country":{"id":"DK","value":"Denmark"},"value":"5547683","decimal":"1","date":"2010"},{"indicator":{"id":"SP.POP.TOTL","value":"Population, total"},"country":{"id":"DJ","value":"Djibouti"},"value":"834036","decimal":"1","date":"2010"},{"indicator":{"id":"SP.POP.TOTL","value":"Population, total"},"country":{"id":"DM","value":"Dominica"},"value":"71167","decimal":"1","date":"2010"},{"indicator":{"id":"SP.POP.TOTL","value":"Population, total"},"country":{"id":"DO","value":"Dominican Republic"},"value":"10016797","decimal":"1","date":"2010"},{"indicator":{"id":"SP.POP.TOTL","value":"Population, total"},"country":{"id":"EC","value":"Ecuador"},"value":"15001072","decimal":"1","date":"2010"},{"indicator":{"id":"SP.POP.TOTL","value":"Population, total"},"country":{"id":"EG","value":"Egypt, Arab Rep."},"value":"78075705","decimal":"1","date":"2010"},{"indicator":{"id":"SP.POP.TOTL","value":"Population, total"},"country":{"id":"SV","value":"El Salvador"},"value":"6218195","decimal":"1","date":"2010"},{"indicator":{"id":"SP.POP.TOTL","value":"Population, total"},"country":{"id":"GQ","value":"Equatorial Guinea"},"value":"696167","decimal":"1","date":"2010"},{"indicator":{"id":"SP.POP.TOTL","value":"Population, total"},"country":{"id":"ER","value":"Eritrea"},"value":"5741159","decimal":"1","date":"2010"},{"indicator":{"id":"SP.POP.TOTL","value":"Population, total"},"country":{"id":"EE","value":"Estonia"},"value":"1331475","decimal":"1","date":"2010"},{"indicator":{"id":"SP.POP.TOTL","value":"Population, total"},"country":{"id":"ET","value":"Ethiopia"},"value":"87095281","decimal":"1","date":"2010"},{"indicator":{"id":"SP.POP.TOTL","value":"Population, total"},"country":{"id":"FO","value":"Faeroe Islands"},"value":"49581","decimal":"1","date":"2010"},{"indicator":{"id":"SP.POP.TOTL","value":"Population, total"},"country":{"id":"FJ","value":"Fiji"},"value":"860559","decimal":"1","date":"2010"},{"indicator":{"id":"SP.POP.TOTL","value":"Population, total"},"country":{"id":"FI","value":"Finland"},"value":"5363352","decimal":"1","date":"2010"}]]