[{"page":1,"pages":3,"per_page":"100","total":248},[{"indicator":{"id":"SP.POP.TOTL","value":"Population, total"},"country":{"id":"1A","value":"Arab World"},"value":"277561423","decimal":"1","date":"2000"},{"indicator":{"id":"SP.POP.TOTL","value":"Population, total"},"country":{"id":"S3","value":"Caribbean small states"},"value":"6431380","decimal":"1","date":"2000"},{"indicator":{"id":"SP.POP.TOTL","value":"Population, total"},"country":{"id":"B8","value":"Central Europe and the Baltics"},"value":"108405522","decimal":"1","date":"2000"},{"indicator":{"id":"SP.POP.TOTL","value":"Population, total"},"country":{"id":"Z4","value":"East Asia & Pacific (all income levels)"},"value":"2043379556","decimal":"1","date":"2000"},{"indicator":{"id":"SP.POP.TOTL","value":"Population, total"},"country":{"id":"4E","value":"East Asia & Pacific (developing only)"},"value":"1812175348","decimal":"1","date":"2000"},{"indicator":{"id":"SP.POP.TOTL","value":"Population, total"},"country":{"id":"XC","value":"Euro area"},"value":"317608111","decimal":"1","date":"2000"},{"indicator":{"id":"SP.POP.TOTL","value":"Population, total"},"country":{"id":"Z7","value":"Europe & Central Asia (all income levels)"},"value":"862094365","decimal":"1","date":"2000"},{"indicator":{"id":"SP.POP.TOTL","value":"Population, total"},"country":{"id":"7E","value":"Europe & Central Asia (developing only)"},"value":"256285094","decimal":"1","date":"2000"},{"indicator":{"id":"SP.POP.TOTL","value":"Population, total"},"country":{"id":"EU","value":"European Union"},"value":"487975692","decimal":"1","date":"2000"},{"indicator":{"id":"SP.POP.TOTL","value":"Population, total"},"country":{"id":"F1","value":"Fragile and conflict affected situations"},"value":"330080933","decimal":"1","date":"2000"},{"indicator":{"id":"SP.POP.TOTL","value":"Population, total"},"country":{"id":"XE","value":"Heavily indebted poor countries (HIPC)"},"value":"472726491","decimal":"1","date":"2000"},{"indicator":{"id":"SP.POP.TOTL","value":"Population, total"},"country":{"id":"XD","value":"High income"},"value":"1210722389","decimal":"1","date":"2000"},{"indicator":{"id":"SP.POP.TOTL","value":"Population, total"},"country":{"id":"XR","value":"High income: nonOECD"},"value":"231667801","decimal":"1","date":"2000"},{"indicator":{"id":"SP.POP.TOTL","value":"Population, total"},"country":{"id":"XS","value":"High income: OECD"},"value":"979054588","decimal":"1","date":"2000"},{"indicator":{"id":"SP.POP.TOTL","value":"Population, total"},"country":{"id":"ZJ","value":"Latin America & Caribbean (all income levels)"},"value":"525299778","decimal":"1","date":"2000"},{"indicator":{"id":"SP.POP.TOTL","value":"Population, total"},"country":{"id":"XJ","value":"Latin America & Caribbean (developing only)"},"value":"500304988","decimal":"1","date":"2000"},{"indicator":{"id":"SP.POP.TOTL","value":"Population, total"},"country":{"id":"XL","value":"Least developed countries: UN classification"},"value":"663076857","decimal":"1","date":"2000"},{"indicator":{"id":"SP.POP.TOTL","value":"Population, total"},"country":{"id":"XO","value":"Low & middle income"},"value":"4891279561","decimal":"1","date":"2000"},{"indicator":{"id":"SP.POP.TOTL","value":"Population, total"},"country":{"id":"XM","value":"Low income"},"value":"636658396","decimal":"1","date":"2000"},{"indicator":{"id":"SP.POP.TOTL","value":"Population, total"},"country":{"id":"XN","value":"Lower middle income"},"value":"2089438289","decimal":"1","date":"2000"},{"indicator":{"id":"SP.POP.TOTL","value":"Population, total"},"country":{"id":"ZQ","value":"Middle East & North Africa (all income levels)"},"value":"311791217","decimal":"1","date":"2000"},{"indicator":{"id":"SP.POP.TOTL","value":"Population, total"},"country":{"id":"XQ","value":"Middle East & North Africa (developing only)"},"value":"276589220","decimal":"1","date":"2000"},{"indicator":{"id":"SP.POP.TOTL","value":"Population, total"},"country":{"id":"XP","value":"Middle income"},"value":"4254621165","decimal":"1","date":"2000"},{"indicator":{"id":"SP.POP.TOTL","value":"Population, total"},"country":{"id":"XU","value":"North America"},"value":"312993944","decimal":"1","date":"2000"},{"indicator":{"id":"SP.POP.TOTL","value":"Population, total"},"country":{"id":"XY","value":"Not classified"},"value":null,"decimal":"1","date":"2000"},{"indicator":{"id":"SP.POP.TOTL","value":"Population, total"},"country":{"id":"OE","value":"OECD members"},"value":"1156313649","decimal":"1","date":"2000"},{"indicator":{"id":"SP.POP.TOTL","value":"Population, total"},"country":{"id":"S4","value":"Other small states"},"value":"16222082","decimal":"1","date":"2000"},{"indicator":{"id":"SP.POP.TOTL","value":"Population, total"},"country":{"id":"S2","value":"Pacific island small states"},"value":"1952589","decimal":"1","date":"2000"},{"indicator":{"id":"SP.POP.TOTL","value":"Population, total"},"country":{"id":"S1","value":"Small states"},"value":"24606051","decimal":"1","date":"2000"},{"indicator":{"id":"SP.POP.TOTL","value":"Population, total"},"country":{"id":"8S","value":"South Asia"},"value":"1382195669","decimal":"1","date":"2000"},{"indicator":{"id":"SP.POP.TOTL","value":"Population, total"},"country":{"id":"ZG","value":"Sub-Saharan Africa (all income levels)"},"value":"664247421","decimal":"1","date":"2000"},{"indicator":{"id":"SP.POP.TOTL","value":"Population, total"},"country":{"id":"ZF","value":"Sub-Saharan Africa (developing only)"},"value":"663729242","decimal":"1","date":"2000"},{"indicator":{"id":"SP.POP.TOTL","value":"Population, total"},"country":{"id":"XT","value":"Upper middle income"},"value":"2165182876","decimal":"1","date":"2000"},{"indicator":{"id":"SP.POP.TOTL","value":"Population, total"},"country":{"id":"1W","value":"World"},"value":"6102001950","decimal":"1","date":"2000"},{"indicator":{"id":"SP.POP.TOTL","value":"Population, total"},"country":{"id":"AF","value":"Afghanistan"},"value":"20595360","decimal":"1","date":"2000"},{"indicator":{"id":"SP.POP.TOTL","value":"Population, total"},"country":{"id":"AL","value":"Albania"},"value":"3089027","decimal":"1","date":"2000"},{"indicator":{"id":"SP.POP.TOTL","value":"Population, total"},"country":{"id":"DZ","value":"Algeria"},"value":"31719449","decimal":"1","date":"2000"},{"indicator":{"id":"SP.POP.TOTL","value":"Population, total"},"country":{"id":"AS","value":"American Samoa"},"value":"57522","decimal":"1","date":"2000"},{"indicator":{"id":"SP.POP.TOTL","value":"Population, total"},"country":{"id":"AD","value":"Andorra"},"value":"65399","decimal":"1","date":"2000"},{"indicator":{"id":"SP.POP.TOTL","value":"Population, total"},"country":{"id":"AO","value":"Angola"},"value":"13924930","decimal":"1","date":"2000"},{"indicator":{"id":"SP.POP.TOTL","value":"Population, total"},"country":{"id":"AG","value":"Antigua and Barbuda"},"value":"77648","decimal":"1","date":"2000"},{"indicator":{"id":"SP.POP.TOTL","value":"Population, total"},"country":{"id":"AR","value":"Argentina"},"value":"36903067","decimal":"1","date":"2000"},{"indicator":{"id":"SP.POP.TOTL","value":"Population, total"},"country":{"id":"AM","value":"Armenia"},"value":"3076098","decimal":"1","date":"2000"},{"indicator":{"id":"SP.POP.TOTL","value":"Population, total"},"country":{"id":"AW","value":"Aruba"},"value":"90858","decimal":"1","date":"2000"},{"indicator":{"id":"SP.POP.TOTL","value":"Population, total"},"country":{"id":"AU","value":"Australia"},"value":"19153000","decimal":"1","date":"2000"},{"indicator":{"id":"SP.POP.TOTL","value":"Population, total"},"country":{"id":"AT","value":"Austria"},"value":"8011566","decimal":"1","date":"2000"},{"indicator":{"id":"SP.POP.TOTL","value":"Population, total"},"country":{"id":"AZ","value":"Azerbaijan"},"value":"8048600","decimal":"1","date":"2000"},{"indicator":{"id":"SP.POP.TOTL","value":"Population, total"},"country":{"id":"BS","value":"Bahamas, The"},"value":"297759","decimal":"1","date":"2000"},{"indicator":{"id":"SP.POP.TOTL","value":"Population, total"},"country":{"id":"BH","value":"Bahrain"},"value":"668239","decimal":"1","date":"2000"},{"indicator":{"id":"SP.POP.TOTL","value":"Population, total"},"country":{"id":"BD","value":"Bangladesh"},"value":"132383265","decimal":"1","date":"2000"},{"indicator":{"id":"SP.POP.TOTL","value":"Population, total"},"country":{"id":"BB","value":"Barbados"},"value":"267190","decimal":"1","date":"2000"},{"indicator":{"id":"SP.POP.TOTL","value":"Population, total"},"country":{"id":"BY","value":"Belarus"},"value":"10005000","decimal":"1","date":"2000"},{"indicator":{"id":"SP.POP.TOTL","value":"Population, total"},"country":{"id":"BE","value":"Belgium"},"value":"10251250","decimal":"1","date":"2000"},{"indicator":{"id":"SP.POP.TOTL","value":"Population, total"},"country":{"id":"BZ","value":"Belize"},"value":"238586","decimal":"1","date":"2000"},{"indicator":{"id":"SP.POP.TOTL","value":"Population, total"},"country":{"id":"BJ","value":"Benin"},"value":"6949366","decimal":"1","date":"2000"},{"indicator":{"id":"SP.POP.TOTL","value":"Population, total"},"country":{"id":"BM","value":"Bermuda"},"value":"61833","decimal":"1","date":"2000"},{"indicator":{"id":"SP.POP.TOTL","value":"Population, total"},"country":{"id":"BT","value":"Bhutan"},"value":"564350","decimal":"1","date":"2000"},{"indicator":{"id":"SP.POP.TOTL","value":"Population, total"},"country":{"id":"BO","value":"Bolivia"},"value":"8495271","decimal":"1","date":"2000"},{"indicator":{"id":"SP.POP.TOTL","value":"Population, total"},"country":{"id":"BA","value":"Bosnia and Herzegovina"},"value":"3834364","decimal":"1","date":"2000"},{"indicator":{"id":"SP.POP.TOTL","value":"Population, total"},"country":{"id":"BW","value":"Botswana"},"value":"1755375","decimal":"1","date":"2000"},{"indicator":{"id":"SP.POP.TOTL","value":"Population, total"},"country":{"id":"BR","value":"Brazil"},"value":"174504898","decimal":"1","date":"2000"},{"indicator":{"id":"SP.POP.TOTL","value":"Population, total"},"country":{"id":"BN","value":"Brunei Darussalam"},"value":"331801","decimal":"1","date":"2000"},{"indicator":{"id":"SP.POP.TOTL","value":"Population, total"},"country":{"id":"BG","value":"Bulgaria"},"value":"8170172","decimal":"1","date":"2000"},{"indicator":{"id":"SP.POP.TOTL","value":"Population, total"},"country":{"id":"BF","value":"Burkina Faso"},"value":"11607944","decimal":"1","date":"2000"},{"indicator":{"id":"SP.POP.TOTL","value":"Population, total"},"country":{"id":"BI","value":"Burundi"},"value":"6674286","decimal":"1","date":"2000"},{"indicator":{"id":"SP.POP.TOTL","value":"Population, total"},"country":{"id":"CV","value":"Cabo Verde"},"value":"442426","decimal":"1","date":"2000"},{"indicator":{"id":"SP.POP.TOTL","value":"Population, total"},"country":{"id":"KH","value":"Cambodia"},"value":"12222871","decimal":"1","date":"2000"},{"indicator":{"id":"SP.POP.TOTL","value":"Population, total"},"country":{"id":"CM","value":"Cameroon"},"value":"15927713","decimal":"1","date":"2000"},{"indicator":{"id":"SP.POP.TOTL","value":"Population, total"},"country":{"id":"CA","value":"Canada"},"value":"30769700","decimal":"1","date":"2000"},{"indicator":{"id":"SP.POP.TOTL","value":"Population, total"},"country":{"id":"KY","value":"Cayman Islands"},"value":"41685","decimal":"1","date":"2000"},{"indicator":{"id":"SP.POP.TOTL","value":"Population, total"},"country":{"id":"CF","value":"Central African Republic"},"value":"3638316","decimal":"1","date":"2000"},{"indicator":{"id":"SP.POP.TOTL","value":"Population, total"},"country":{"id":"TD","value":"Chad"},"value":"8301151","decimal":"1","date":"2000"},{"indicator":{"id":"SP.POP.TOTL","value":"Population, total"},"country":{"id":"JG","value":"Channel Islands"},"value":"148725","decimal":"1","date":"2000"},{"indicator":{"id":"SP.POP.TOTL","value":"Population, total"},"country":{"id":"CL","value":"Chile"},"value":"15454402","decimal":"1","date":"2000"},{"indicator":{"id":"SP.POP.TOTL","value":"Population, total"},"country":{"id":"CN","value":"China"},"value":"1262645000","decimal":"1","date":"2000"},{"indicator":{"id":"SP.POP.TOTL","value":"Population, total"},"country":{"id":"CO","value":"Colombia"},"value":"39897984","decimal":"1","date":"2000"},{"indicator":{"id":"SP.POP.TOTL","value":"Population, total"},"country":{"id":"KM","value":"Comoros"},"value":"528312","decimal":"1","date":"2000"},{"indicator":{"id":"SP.POP.TOTL","value":"Population, total"},"country":{"id":"CD","value":"Congo, Dem. Rep."},"value":"46949244","decimal":"1","date":"2000"},{"indicator":{"id":"SP.POP.TOTL","value":"Population, total"},"country":{"id":"CG","value":"Congo, Rep."},"value":"3126204","decimal":"1","date":"2000"},{"indicator":{"id":"SP.POP.TOTL","value":"Population, total"},"country":{"id":"CR","value":"Costa Rica"},"value":"3929588","decimal":"1","date":"2000"},{"indicator":{"id":"SP.POP.TOTL","value":"Population, total"},"country":{"id":"CI","value":"Cote d'Ivoire"},"value":"16131332","decimal":"1","date":"2000"},{"indicator":{"id":"SP.POP.TOTL","value":"Population, total"},"country":{"id":"HR","value":"Croatia"},"value":"4426000","decimal":"1","date":"2000"},{"indicator":{"id":"SP.POP.TOTL","value":"Population, total"},"country":{"id":"CU","value":"Cuba"},"value":"11138416","decimal":"1","date":"2000"},{"indicator":{"id":"SP.POP.TOTL","value":"Population, total"},"country":{"id":"CW","value":"Curacao"},"value":"133860","decimal":"1","date":"2000"},{"indicator":{"id":"SP.POP.TOTL","value":"Population, total"},"country":{"id":"CY","value":"Cyprus"},"value":"943287","decimal":"1","date":"2000"},{"indicator":{"id":"SP.POP.TOTL","value":"Population, total"},"country":{"id":"CZ","value":"Czech Republic"},"value":"10255063","decimal":"1","date":"2000"},{"indicator":{"id":"SP.POP.TOTL","value":"Population, total"},"country":{"id":"DK","value":"Denmark"},"value":"5339616","decimal":"1","date":"2000"},{"indicator":{"id":"SP.POP.TOTL","value":"Population, total"},"country":{"id":"DJ","value":"Djibouti"},"value":"722887","decimal":"1","date":"2000"},{"indicator":{"id":"SP.POP.TOTL","value":"Population, total"},"country":{"id":"DM","value":"Dominica"},"value":"69679","decimal":"1","date":"2000"},{"indicator":{"id":"SP.POP.TOTL","value":"Population, total"},"country":{"id":"DO","value":"Dominican Republic"},"value":"8663421","decimal":"1","date":"2000"},{"indicator":{"id":"SP.POP.TOTL","value":"Population, total"},"country":{"id":"EC","value":"Ecuador"},"value":"12533087","decimal":"1","date":"2000"},{"indicator":{"id":"SP.POP.TOTL","value":"Population, total"},"country":{"id":"EG","value":"Egypt, Arab Rep."},"value":"66136590","decimal":"1","date":"2000"},{"indicator":{"id":"SP.POP.TOTL","value":"Population, total"},"country":{"id":"SV","value":"El Salvador"},"value":"5958794","decimal":"1","date":"2000"},{"indicator":{"id":"SP.POP.TOTL","value":"Population, total"},"country":{"id":"GQ","value":"Equatorial Guinea"},"value":"518179","decimal":"1","date":"2000"},{"indicator":{"id":"SP.POP.TOTL","value":"Population, total"},"country":{"id":"ER","value":"Eritrea"},"value":"3939348","decimal":"1","date":"2000"},{"indicator":{"id":"SP.POP.TOTL","value":"Population, total"},"country":{"id":"EE","value":"Estonia"},"value":"1396985","decimal":"1","date":"2000"},{"indicator":{"id":"SP.POP.TOTL","value":"Population, total"},"country":{"id":"ET","value":"Ethiopia"},"value":"66024199","decimal":"1","date":"2000"},{"indicator":{"id":"SP.POP.TOTL","value":"Population, total"},"country":{"id":"FO","value":"Faeroe Islands"},"value":"46491","decimal":"1","date":"2000"},{"indicator":{"id":"SP.POP.TOTL","value":"Population, total"},"country":{"id":"FJ","value":"Fiji"},"value":"811647","decimal":"1","date":"2000"},{"indicator":{"id":"SP.POP.TOTL","value":"Population, total"},"country":{"id":"FI","value":"Finland"},"value":"5176209","decimal":"1","date":"2000"}]]