[{"page":2,"pages":3,"per_page":"100","total":248},[{"indicator":{"id":"SP.POP.TOTL","value":"Population, total"},"country":{"id":"FR","value":"France"},"value":"60911057","decimal":"1","date":"2000"},{"indicator":{"id":"SP.POP.TOTL","value":"Population, total"},"country":{"id":"PF","value":"French Polynesia"},"value":"237267","decimal":"1","date":"2000"},{"indicator":{"id":"SP.POP.TOTL","value":"Population, total"},"country":{"id":"GA","value":"Gabon"},"value":"1225527","decimal":"1","date":"2000"},{"indicator":{"id":"SP.POP.TOTL","value":"Population, total"},"country":{"id":"GM","value":"Gambia, The"},"value":"1228863","decimal":"1","date":"2000"},{"indicator":{"id":"SP.POP.TOTL","value":"Population, total"},"country":{"id":"GE","value":"Georgia"},"value":"4418300","decimal":"1","date":"2000"},{"indicator":{"id":"SP.POP.TOTL","value":"Population, total"},"country":{"id":"DE","value":"Germany"},"value":"82211508","decimal":"1","date":"2000"},{"indicator":{"id":"SP.POP.TOTL","value":"Population, total"},"country":{"id":"GH","value":"Ghana"},"value":"18825034","decimal":"1","date":"2000"},{"indicator":{"id":"SP.POP.TOTL","value":"Population, total"},"country":{"id":"GR","value":"Greece"},"value":"10917482","decimal":"1","date":"2000"},{"indicator":{"id":"SP.POP.TOTL","value":"Population, total"},"country":{"id":"GL","value":"Greenland"},"value":"56200","decimal":"1","date":"2000"},{"indicator":{"id":"SP.POP.TOTL","value":"Population, total"},"country":{"id":"GD","value":"Grenada"},"value":"101620","decimal":"1","date":"2000"},{"indicator":{"id":"SP.POP.TOTL","value":"Population, total"},"country":{"id":"GU","value":"Guam"},"value":"155328","decimal":"1","date":"2000"},{"indicator":{"id":"SP.POP.TOTL","value":"Population, total"},"country":{"id":"GT","value":"Guatemala"},"value":"11204183","decimal":"1","date":"2000"},{"indicator":{"id":"SP.POP.TOTL","value":"Population, total"},"country":{"id":"GN","value":"Guinea"},"value":"8746128","decimal":"1","date":"2000"},{"indicator":{"id":"SP.POP.TOTL","value":"Population, total"},"country":{"id":"GW","value":"Guinea-Bissau"},"value":"1273312","decimal":"1","date":"2000"},{"indicator":{"id":"SP.POP.TOTL","value":"Population, total"},"country":{"id":"GY","value":"Guyana"},"value":"744471","decimal":"1","date":"2000"},{"indicator":{"id":"SP.POP.TOTL","value":"Population, total"},"country":{"id":"HT","value":"Haiti"},"value":"8578234","decimal":"1","date":"2000"},{"indicator":{"id":"SP.POP.TOTL","value":"Population, total"},"country":{"id":"HN","value":"Honduras"},"value":"6235561","decimal":"1","date":"2000"},{"indicator":{"id":"SP.POP.TOTL","value":"Population, total"},"country":{"id":"HK","value":"Hong Kong SAR, China"},"value":"6665000","decimal":"1","date":"2000"},{"indicator":{"id":"SP.POP.TOTL","value":"Population, total"},"country":{"id":"HU","value":"Hungary"},"value":"10210971","decimal":"1","date":"2000"},{"indicator":{"id":"SP.POP.TOTL","value":"Population, total"},"country":{"id":"IS","value":"Iceland"},"value":"281205","decimal":"1","date":"2000"},{"indicator":{"id":"SP.POP.TOTL","value":"Population, total"},"country":{"id":"IN","value":"India"},"value":"1042261758","decimal":"1","date":"2000"},{"indicator":{"id":"SP.POP.TOTL","value":"Population, total"},"country":{"id":"ID","value":"Indonesia"},"value":"208938698","decimal":"1","date":"2000"},{"indicator":{"id":"SP.POP.TOTL","value":"Population, total"},"country":{"id":"IR","value":"Iran, Islamic Rep."},"value":"65911052","decimal":"1","date":"2000"},{"indicator":{"id":"SP.POP.TOTL","value":"Population, total"},"country":{"id":"IQ","value":"Iraq"},"value":"23801156","decimal":"1","date":"2000"},{"indicator":{"id":"SP.POP.TOTL","value":"Population, total"},"country":{"id":"IE","value":"Ireland"},"value":"3805174","decimal":"1","date":"2000"},{"indicator":{"id":"SP.POP.TOTL","value":"Population, total"},"country":{"id":"IM","value":"Isle of Man"},"value":"76806","decimal":"1","date":"2000"},{"indicator":{"id":"SP.POP.TOTL","value":"Population, total"},"country":{"id":"IL","value":"Israel"},"value":"6289000","decimal":"1","date":"2000"},{"indicator":{"id":"SP.POP.TOTL","value":"Population, total"},"country":{"id":"IT","value":"Italy"},"value":"56942108","decimal":"1","date":"2000"},{"indicator":{"id":"SP.POP.TOTL","value":"Population, total"},"country":{"id":"JM","value":"Jamaica"},"value":"2589389","decimal":"1","date":"2000"},{"indicator":{"id":"SP.POP.TOTL","value":"Population, total"},"country":{"id":"JP","value":"Japan"},"value":"126870000","decimal":"1","date":"2000"},{"indicator":{"id":"SP.POP.TOTL","value":"Population, total"},"country":{"id":"JO","value":"Jordan"},"value":"4797000","decimal":"1","date":"2000"},{"indicator":{"id":"SP.POP.TOTL","value":"Population, total"},"country":{"id":"KZ","value":"Kazakhstan"},"value":"14883626","decimal":"1","date":"2000"},{"indicator":{"id":"SP.POP.TOTL","value":"Population, total"},"country":{"id":"KE","value":"Kenya"},"value":"31285050","decimal":"1","date":"2000"},{"indicator":{"id":"SP.POP.TOTL","value":"Population, total"},"country":{"id":"KI","value":"Kiribati"},"value":"82788","decimal":"1","date":"2000"},{"indicator":{"id":"SP.POP.TOTL","value":"Population, total"},"country":{"id":"KP","value":"Korea, Dem. Rep."},"value":"22840225","decimal":"1","date":"2000"},{"indicator":{"id":"SP.POP.TOTL","value":"Population, total"},"country":{"id":"KR","value":"Korea, Rep."},"value":"47008111","decimal":"1","date":"2000"},{"indicator":{"id":"SP.POP.TOTL","value":"Population, total"},"country":{"id":"KV","value":"Kosovo"},"value":"1700000","decimal":"1","date":"2000"},{"indicator":{"id":"SP.POP.TOTL","value":"Population, total"},"country":{"id":"KW","value":"Kuwait"},"value":"1906231","decimal":"1","date":"2000"},{"indicator":{"id":"SP.POP.TOTL","value":"Population, total"},"country":{"id":"KG","value":"Kyrgyz Republic"},"value":"4898400","decimal":"1","date":"2000"},{"indicator":{"id":"SP.POP.TOTL","value":"Population, total"},"country":{"id":"LA","value":"Lao PDR"},"value":"5388281","decimal":"1","date":"2000"},{"indicator":{"id":"SP.POP.TOTL","value":"Population, total"},"country":{"id":"LV","value":"Latvia"},"value":"2367550","decimal":"1","date":"2000"},{"indicator":{"id":"SP.POP.TOTL","value":"Population, total"},"country":{"id":"LB","value":"Lebanon"},"value":"3235380","decimal":"1","date":"2000"},{"indicator":{"id":"SP.POP.TOTL","value":"Population, total"},"country":{"id":"LS","value":"Lesotho"},"value":"1856225","decimal":"1","date":"2000"},{"indicator":{"id":"SP.POP.TOTL","value":"Population, total"},"country":{"id":"LR","value":"Liberia"},"value":"2891968","decimal":"1","date":"2000"},{"indicator":{"id":"SP.POP.TOTL","value":"Population, total"},"country":{"id":"LY","value":"Libya"},"value":"5176185","decimal":"1","date":"2000"},{"indicator":{"id":"SP.POP.TOTL","value":"Population, total"},"country":{"id":"LI","value":"Liechtenstein"},"value":"33093","decimal":"1","date":"2000"},{"indicator":{"id":"SP.POP.TOTL","value":"Population, total"},"country":{"id":"LT","value":"Lithuania"},"value":"3499536","decimal":"1","date":"2000"},{"indicator":{"id":"SP.POP.TOTL","value":"Population, total"},"country":{"id":"LU","value":"Luxembourg"},"value":"436300","decimal":"1","date":"2000"},{"indicator":{"id":"SP.POP.TOTL","value":"Population, total"},"country":{"id":"MO","value":"Macao SAR, China"},"value":"431907","decimal":"1","date":"2000"},{"indicator":{"id":"SP.POP.TOTL","value":"Population, total"},"country":{"id":"MK","value":"Macedonia, FYR"},"value":"2052129","decimal":"1","date":"2000"},{"indicator":{"id":"SP.POP.TOTL","value":"Population, total"},"country":{"id":"MG","value":"Madagascar"},"value":"15744811","decimal":"1","date":"2000"},{"indicator":{"id":"SP.POP.TOTL","value":"Population, total"},"country":{"id":"MW","value":"Malawi"},"value":"11321496","decimal":"1","date":"2000"},{"indicator":{"id":"SP.POP.TOTL","value":"Population, total"},"country":{"id":"MY","value":"Malaysia"},"value":"23420751","decimal":"1","date":"2000"},{"indicator":{"id":"SP.POP.TOTL","value":"Population, total"},"country":{"id":"MV","value":"Maldives"},"value":"272745","decimal":"1","date":"2000"},{"indicator":{"id":"SP.POP.TOTL","value":"Population, total"},"country":{"id":"ML","value":"Mali"},"value":"10260577","decimal":"1","date":"2000"},{"indicator":{"id":"SP.POP.TOTL","value":"Population, total"},"country":{"id":"MT","value":"Malta"},"value":"381363","decimal":"1","date":"2000"},{"indicator":{"id":"SP.POP.TOTL","value":"Population, total"},"country":{"id":"MH","value":"Marshall Islands"},"value":"52161","decimal":"1","date":"2000"},{"indicator":{"id":"SP.POP.TOTL","value":"Population, total"},"country":{"id":"MR","value":"Mauritania"},"value":"2708095","decimal":"1","date":"2000"},{"indicator":{"id":"SP.POP.TOTL","value":"Population, total"},"country":{"id":"MU","value":"Mauritius"},"value":"1186873","decimal":"1","date":"2000"},{"indicator":{"id":"SP.POP.TOTL","value":"Population, total"},"country":{"id":"MX","value":"Mexico"},"value":"103873607","decimal":"1","date":"2000"},{"indicator":{"id":"SP.POP.TOTL","value":"Population, total"},"country":{"id":"FM","value":"Micronesia, Fed. Sts."},"value":"107430","decimal":"1","date":"2000"},{"indicator":{"id":"SP.POP.TOTL","value":"Population, total"},"country":{"id":"MD","value":"Moldova"},"value":"3639592","decimal":"1","date":"2000"},{"indicator":{"id":"SP.POP.TOTL","value":"Population, total"},"country":{"id":"MC","value":"Monaco"},"value":"32081","decimal":"1","date":"2000"},{"indicator":{"id":"SP.POP.TOTL","value":"Population, total"},"country":{"id":"MN","value":"Mongolia"},"value":"2397473","decimal":"1","date":"2000"},{"indicator":{"id":"SP.POP.TOTL","value":"Population, total"},"country":{"id":"ME","value":"Montenegro"},"value":"611196","decimal":"1","date":"2000"},{"indicator":{"id":"SP.POP.TOTL","value":"Population, total"},"country":{"id":"MA","value":"Morocco"},"value":"28710123","decimal":"1","date":"2000"},{"indicator":{"id":"SP.POP.TOTL","value":"Population, total"},"country":{"id":"MZ","value":"Mozambique"},"value":"18275618","decimal":"1","date":"2000"},{"indicator":{"id":"SP.POP.TOTL","value":"Population, total"},"country":{"id":"MM","value":"Myanmar"},"value":"48453000","decimal":"1","date":"2000"},{"indicator":{"id":"SP.POP.TOTL","value":"Population, total"},"country":{"id":"NA","value":"Namibia"},"value":"1897953","decimal":"1","date":"2000"},{"indicator":{"id":"SP.POP.TOTL","value":"Population, total"},"country":{"id":"NP","value":"Nepal"},"value":"23184177","decimal":"1","date":"2000"},{"indicator":{"id":"SP.POP.TOTL","value":"Population, total"},"country":{"id":"NL","value":"Netherlands"},"value":"15925513","decimal":"1","date":"2000"},{"indicator":{"id":"SP.POP.TOTL","value":"Population, total"},"country":{"id":"NC","value":"New Caledonia"},"value":"213230","decimal":"1","date":"2000"},{"indicator":{"id":"SP.POP.TOTL","value":"Population, total"},"country":{"id":"NZ","value":"New Zealand"},"value":"3857700","decimal":"1","date":"2000"},{"indicator":{"id":"SP.POP.TOTL","value":"Population, total"},"country":{"id":"NI","value":"Nicaragua"},"value":"5100920","decimal":"1","date":"2000"},{"indicator":{"id":"SP.POP.TOTL","value":"Population, total"},"country":{"id":"NE","value":"Niger"},"value":"10989815","decimal":"1","date":"2000"},{"indicator":{"id":"SP.POP.TOTL","value":"Population, total"},"country":{"id":"NG","value":"Nigeria"},"value":"122876727","decimal":"1","date":"2000"},{"indicator":{"id":"SP.POP.TOTL","value":"Population, total"},"country":{"id":"MP","value":"Northern Mariana Islands"},"value":"68434","decimal":"1","date":"2000"},{"indicator":{"id":"SP.POP.TOTL","value":"Population, total"},"country":{"id":"NO","value":"Norway"},"value":"4490967","decimal":"1","date":"2000"},{"indicator":{"id":"SP.POP.TOTL","value":"Population, total"},"country":{"id":"OM","value":"Oman"},"value":"2192535","decimal":"1","date":"2000"},{"indicator":{"id":"SP.POP.TOTL","value":"Population, total"},"country":{"id":"PK","value":"Pakistan"},"value":"143832014","decimal":"1","date":"2000"},{"indicator":{"id":"SP.POP.TOTL","value":"Population, total"},"country":{"id":"PW","value":"Palau"},"value":"19174","decimal":"1","date":"2000"},{"indicator":{"id":"SP.POP.TOTL","value":"Population, total"},"country":{"id":"PA","value":"Panama"},"value":"3054812","decimal":"1","date":"2000"},{"indicator":{"id":"SP.POP.TOTL","value":"Population, total"},"country":{"id":"PG","value":"Papua New Guinea"},"value":"5379226","decimal":"1","date":"2000"},{"indicator":{"id":"SP.POP.TOTL","value":"Population, total"},"country":{"id":"PY","value":"Paraguay"},"value":"5350253","decimal":"1","date":"2000"},{"indicator":{"id":"SP.POP.TOTL","value":"Population, total"},"country":{"id":"PE","value":"Peru"},"value":"26000080","decimal":"1","date":"2000"},{"indicator":{"id":"SP.POP.TOTL","value":"Population, total"},"country":{"id":"PH","value":"Philippines"},"value":"77651848","decimal":"1","date":"2000"},{"indicator":{"id":"SP.POP.TOTL","value":"Population, total"},"country":{"id":"PL","value":"Poland"},"value":"38258629","decimal":"1","date":"2000"},{"indicator":{"id":"SP.POP.TOTL","value":"Population, total"},"country":{"id":"PT","value":"Portugal"},"value":"10289898","decimal":"1","date":"2000"},{"indicator":{"id":"SP.POP.TOTL","value":"Population, total"},"country":{"id":"PR","value":"Puerto Rico"},"value":"3810605","decimal":"1","date":"2000"},{"indicator":{"id":"SP.POP.TOTL","value":"Population, total"},"country":{"id":"QA","value":"Qatar"},"value":"593693","decimal":"1","date":"2000"},{"indicator":{"id":"SP.POP.TOTL","value":"Population, total"},"country":{"id":"RO","value":"Romania"},"value":"22442971","decimal":"1","date":"2000"},{"indicator":{"id":"SP.POP.TOTL","value":"Population, total"},"country":{"id":"RU","value":"Russian Federation"},"value":"146596870","decimal":"1","date":"2000"},{"indicator":{"id":"SP.POP.TOTL","value":"Population, total"},"country":{"id":"RW","value":"Rwanda"},"value":"8395577","decimal":"1","date":"2000"},{"indicator":{"id":"SP.POP.TOTL","value":"Population, total"},"country":{"id":"WS","value":"Samoa"},"value":"174614","decimal":"1","date":"2000"},{"indicator":{"id":"SP.POP.TOTL","value":"Population, total"},"country":{"id":"SM","value":"San Marino"},"value":"26969","decimal":"1","date":"2000"},{"indicator":{"id":"SP.POP.TOTL","value":"Population, total"},"country":{"id":"ST","value":"Sao Tome and Principe"},"value":"139428","decimal":"1","date":"2000"},{"indicator":{"id":"SP.POP.TOTL","value":"Population, total"},"country":{"id":"SA","value":"Saudi Arabia"},"value":"20144584","decimal":"1","date":"2000"},{"indicator":{"id":"SP.POP.TOTL","value":"Population, total"},"country":{"id":"SN","value":"Senegal"},"value":"9861679","decimal":"1","date":"2000"},{"indicator":{"id":"SP.POP.TOTL","value":"Population, total"},"country":{"id":"RS","value":"Serbia"},"value":"7516346","decimal":"1","date":"2000"},{"indicator":{"id":"SP.POP.TOTL","value":"Population, total"},"country":{"id":"SC","value":"Seychelles"},"value":"81131","decimal":"1","date":"2000"}]]