[{"page":3,"pages":3,"per_page":"100","total":248},[{"indicator":{"id":"SP.POP.TOTL","value":"Population, total"},"country":{"id":"SL","value":"Sierra Leone"},"value":"4139757","decimal":"1","date":"2000"},{"indicator":{"id":"SP.POP.TOTL","value":"Population, total"},"country":{"id":"SG","value":"Singapore"},"value":"4027900","decimal":"1","date":"2000"},{"indicator":{"id":"SP.POP.TOTL","value":"Population, total"},"country":{"id":"SX","value":"Sint Maarten (Dutch part)"},"value":"30519","decimal":"1","date":"2000"},{"indicator":{"id":"SP.POP.TOTL","value":"Population, total"},"country":{"id":"SK","value":"Slovak Republic"},"value":"5388720","decimal":"1","date":"2000"},{"indicator":{"id":"SP.POP.TOTL","value":"Population, total"},"country":{"id":"SI","value":"Slovenia"},"value":"1988925","decimal":"1","date":"2000"},{"indicator":{"id":"SP.POP.TOTL","value":"Population, total"},"country":{"id":"SB","value":"Solomon Islands"},"value":"412336","decimal":"1","date":"2000"},{"indicator":{"id":"SP.POP.TOTL","value":"Population, total"},"country":{"id":"SO","value":"Somalia"},"value":"7385416","decimal":"1","date":"2000"},{"indicator":{"id":"SP.POP.TOTL","value":"Population, total"},"country":{"id":"ZA","value":"South Africa"},"value":"44000000","decimal":"1","date":"2000"},{"indicator":{"id":"SP.POP.TOTL","value":"Population, total"},"country":{"id":"SS","value":"South Sudan"},"value":"6652984","decimal":"1","date":"2000"},{"indicator":{"id":"SP.POP.TOTL","value":"Population, total"},"country":{"id":"ES","value":"Spain"},"value":"40263216","decimal":"1","date":"2000"},{"indicator":{"id":"SP.POP.TOTL","value":"Population, total"},"country":{"id":"LK","value":"Sri Lanka"},"value":"19102000","decimal":"1","date":"2000"},{"indicator":{"id":"SP.POP.TOTL","value":"Population, total"},"country":{"id":"KN","value":"St. Kitts and Nevis"},"value":"45544","decimal":"1","date":"2000"},{"indicator":{"id":"SP.POP.TOTL","value":"Population, total"},"country":{"id":"LC","value":"St. Lucia"},"value":"156949","decimal":"1","date":"2000"},{"indicator":{"id":"SP.POP.TOTL","value":"Population, total"},"country":{"id":"MF","value":"St. Martin (French part)"},"value":"28384","decimal":"1","date":"2000"},{"indicator":{"id":"SP.POP.TOTL","value":"Population, total"},"country":{"id":"VC","value":"St. Vincent and the Grenadines"},"value":"107897","decimal":"1","date":"2000"},{"indicator":{"id":"SP.POP.TOTL","value":"Population, total"},"country":{"id":"SD","value":"Sudan"},"value":"27729798","decimal":"1","date":"2000"},{"indicator":{"id":"SP.POP.TOTL","value":"Population, total"},"country":{"id":"SR","value":"Suriname"},"value":"466668","decimal":"1","date":"2000"},{"indicator":{"id":"SP.POP.TOTL","value":"Population, total"},"country":{"id":"SZ","value":"Swaziland"},"value":"1063715","decimal":"1","date":"2000"},{"indicator":{"id":"SP.POP.TOTL","value":"Population, total"},"country":{"id":"SE","value":"Sweden"},"value":"8872109","decimal":"1","date":"2000"},{"indicator":{"id":"SP.POP.TOTL","value":"Population, total"},"country":{"id":"CH","value":"Switzerland"},"value":"7184250","decimal":"1","date":"2000"},{"indicator":{"id":"SP.POP.TOTL","value":"Population, total"},"country":{"id":"SY","value":"Syrian Arab Republic"},"value":"16371208","decimal":"1","date":"2000"},{"indicator":{"id":"SP.POP.TOTL","value":"Population, total"},"country":{"id":"TJ","value":"Tajikistan"},"value":"6186152","decimal":"1","date":"2000"},{"indicator":{"id":"SP.POP.TOTL","value":"Population, total"},"country":{"id":"TZ","value":"Tanzania"},"value":"34020512","decimal":"1","date":"2000"},{"indicator":{"id":"SP.POP.TOTL","value":"Population, total"},"country":{"id":"TH","value":"Thailand"},"value":"62343379","decimal":"1","date":"2000"},{"indicator":{"id":"SP.POP.TOTL","value":"Population, total"},"country":{"id":"TL","value":"Timor-Leste"},"value":"853585","decimal":"1","date":"2000"},{"indicator":{"id":"SP.POP.TOTL","value":"Population, total"},"country":{"id":"TG","value":"Togo"},"value":"4864753","decimal":"1","date":"2000"},{"indicator":{"id":"SP.POP.TOTL","value":"Population, total"},"country":{"id":"TO","value":"Tonga"},"value":"97962","decimal":"1","date":"2000"},{"indicator":{"id":"SP.POP.TOTL","value":"Population, total"},"country":{"id":"TT","value":"Trinidad and Tobago"},"value":"1267980","decimal":"1","date":"2000"},{"indicator":{"id":"SP.POP.TOTL","value":"Population, total"},"country":{"id":"TN","value":"Tunisia"},"value":"9563500","decimal":"1","date":"2000"},{"indicator":{"id":"SP.POP.TOTL","value":"Population, total"},"country":{"id":"TR","value":"Turkey"},"value":"63174483","decimal":"1","date":"2000"},{"indicator":{"id":"SP.POP.TOTL","value":"Population, total"},"country":{"id":"TM","value":"Turkmenistan"},"value":"4501419","decimal":"1","date":"2000"},{"indicator":{"id":"SP.POP.TOTL","value":"Population, total"},"country":{"id":"TC","value":"Turks and Caicos Islands"},"value":"18876","decimal":"1","date":"2000"},{"indicator":{"id":"SP.POP.TOTL","value":"Population, total"},"country":{"id":"TV","value":"Tuvalu"},"value":"9419","decimal":"1","date":"2000"},{"indicator":{"id":"SP.POP.TOTL","value":"Population, total"},"country":{"id":"UG","value":"Uganda"},"value":"24275641","decimal":"1","date":"2000"},{"indicator":{"id":"SP.POP.TOTL","value":"Population, total"},"country":{"id":"UA","value":"Ukraine"},"value":"49175848","decimal":"1","date":"2000"},{"indicator":{"id":"SP.POP.TOTL","value":"Population, total"},"country":{"id":"AE","value":"United Arab Emirates"},"value":"3026352","decimal":"1","date":"2000"},{"indicator":{"id":"SP.POP.TOTL","value":"Population, total"},"country":{"id":"GB","value":"United Kingdom"},"value":"58892514","decimal":"1","date":"2000"},{"indicator":{"id":"SP.POP.TOTL","value":"Population, total"},"country":{"id":"US","value":"United States"},"value":"282162411","decimal":"1","date":"2000"},{"indicator":{"id":"SP.POP.TOTL","value":"Population, total"},"country":{"id":"UY","value":"Uruguay"},"value":"3320841","decimal":"1","date":"2000"},{"indicator":{"id":"SP.POP.TOTL","value":"Population, total"},"country":{"id":"UZ","value":"Uzbekistan"},"value":"24650400","decimal":"1","date":"2000"},{"indicator":{"id":"SP.POP.TOTL","value":"Population, total"},"country":{"id":"VU","value":"Vanuatu"},"value":"185058","decimal":"1","date":"2000"},{"indicator":{"id":"SP.POP.TOTL","value":"Population, total"},"country":{"id":"VE","value":"Venezuela, RB"},"value":"24407553","decimal":"1","date":"2000"},{"indicator":{"id":"SP.POP.TOTL","value":"Population, total"},"country":{"id":"VN","value":"Vietnam"},"value":"77630900","decimal":"1","date":"2000"},{"indicator":{"id":"SP.POP.TOTL","value":"Population, total"},"country":{"id":"VI","value":"Virgin Islands (U.S.)"},"value":"108639","decimal":"1","date":"2000"},{"indicator":{"id":"SP.POP.TOTL","value":"Population, total"},"country":{"id":"PS","value":"West Bank and Gaza"},"value":"2922153","decimal":"1","date":"2000"},{"indicator":{"id":"SP.POP.TOTL","value":"Population, total"},"country":{"id":"YE","value":"Yemen, Rep."},"value":"17522537","decimal":"1","date":"2000"},{"indicator":{"id":"SP.POP.TOTL","value":"Population, total"},"country":{"id":"ZM","value":"Zambia"},"value":"10100981","decimal":"1","date":"2000"},{"indicator":{"id":"SP.POP.TOTL","value":"Population, total"},"country":{"id":"ZW","value":"Zimbabwe"},"value":"12503652","decimal":"1","date":"2000"}]]